<?xml version="1.0" encoding="UTF-8" standalone="no"?>
<!-- Created with Inkscape (http://www.inkscape.org/) -->

<svg
 xmlns:dc="http://purl.org/dc/elements/1.1/"
 xmlns:cc="http://creativecommons.org/ns#"
 xmlns:rdf="http://www.w3.org/1999/02/22-rdf-syntax-ns#"
 xmlns:svg="http://www.w3.org/2000/svg"
 xmlns="http://www.w3.org/2000/svg"
 xmlns:sodipodi="http://sodipodi.sourceforge.net/DTD/sodipodi-0.dtd"
 xmlns:inkscape="http://www.inkscape.org/namespaces/inkscape"
 width="192"
 height="192"
 viewBox="0 0 192 192"
 version="1.1"
 id="svg8"
 inkscape:version="0.92.3 (5aff6bad34, 2018-11-25)"
 sodipodi:docname="ic_location_service_off.svg">
<defs
 id="defs2" />
<sodipodi:namedview
 id="base"
 pagecolor="#ffffff"
 bordercolor="#666666"
 borderopacity="1.0"
 inkscape:pageopacity="0.0"
 inkscape:pageshadow="2"
 inkscape:zoom="3.959798"
 inkscape:cx="49.389219"
 inkscape:cy="103.24243"
 inkscape:document-units="px"
 inkscape:current-layer="layer1"
 showgrid="false"
 units="px"
 inkscape:pagecheckerboard="true"
 inkscape:window-width="1390"
 inkscape:window-height="1080"
 inkscape:window-x="530"
 inkscape:window-y="23"
 inkscape:window-maximized="0" />
<metadata
 id="metadata5">
<rdf:RDF>
<cc:Work
 rdf:about="">
<dc:format>image/svg+xml</dc:format>
<dc:type
 rdf:resource="http://purl.org/dc/dcmitype/StillImage" />
<dc:title></dc:title>
</cc:Work>
</rdf:RDF>
</metadata>
<g
 inkscape:label="Layer 1"
 inkscape:groupmode="layer"
 id="layer1"
 transform="translate(0,-638.66933)">
<path
 id="path2844"
 d="m 96.294924,686.26933 c 12.143996,0 21.999996,9.85601 21.999996,22 0,6.46801 -2.86001,12.232 -7.304,16.28 l 31.944,31.944 c 8.57999,-16.368 14.95999,-33.396 14.95999,-48.224 0,-34.01199 -27.58799,-61.6 -61.599986,-61.6 -17.424,0 -33.132005,7.26 -44.307998,18.87601 l 28.027997,28.02799 c 4.004001,-4.444 9.811998,-7.304 16.280001,-7.304 z m 38.499996,84.48 -40.699996,-40.7 -0.968,-0.968 -73.656,-73.612 -11.1760002,11.22 27.9839962,27.984 c -1.011996,4.356 -1.584,8.888 -1.584,13.596 0,46.2 61.600004,114.4 61.600004,114.4 0,0 14.695996,-16.28 29.699996,-38.28 l 29.47999,29.48 11.22001,-11.22 z"
 inkscape:connector-curvature="0"
 style="stroke-width:4.39999962;fill:#ffffff;fill-opacity:1" />
</g>
</svg>
