<?xml version="1.0" encoding="UTF-8" standalone="no"?>
<!-- Created with Inkscape (http://www.inkscape.org/) -->

<svg
 xmlns:dc="http://purl.org/dc/elements/1.1/"
 xmlns:cc="http://creativecommons.org/ns#"
 xmlns:rdf="http://www.w3.org/1999/02/22-rdf-syntax-ns#"
 xmlns:svg="http://www.w3.org/2000/svg"
 xmlns="http://www.w3.org/2000/svg"
 xmlns:sodipodi="http://sodipodi.sourceforge.net/DTD/sodipodi-0.dtd"
 xmlns:inkscape="http://www.inkscape.org/namespaces/inkscape"
 width="192"
 height="192"
 viewBox="0 0 192 192"
 version="1.1"
 id="svg8"
 inkscape:version="0.92.3 (5aff6bad34, 2018-11-25)"
 sodipodi:docname="ic_uvi_06.svg">
<defs
 id="defs2" />
<sodipodi:namedview
 id="base"
 pagecolor="#ffffff"
 bordercolor="#666666"
 borderopacity="1.0"
 inkscape:pageopacity="0.0"
 inkscape:pageshadow="2"
 inkscape:zoom="0.9899495"
 inkscape:cx="201.45441"
 inkscape:cy="-38.084955"
 inkscape:document-units="px"
 inkscape:current-layer="layer1"
 showgrid="false"
 units="px"
 inkscape:pagecheckerboard="true"
 inkscape:window-width="1390"
 inkscape:window-height="1080"
 inkscape:window-x="530"
 inkscape:window-y="23"
 inkscape:window-maximized="0" />
<metadata
 id="metadata5">
<rdf:RDF>
<cc:Work
 rdf:about="">
<dc:format>image/svg+xml</dc:format>
<dc:type
 rdf:resource="http://purl.org/dc/dcmitype/StillImage" />
<dc:title></dc:title>
</cc:Work>
</rdf:RDF>
</metadata>
<g
 inkscape:label="Template"
 inkscape:groupmode="layer"
 id="layer1"
 transform="translate(0,-638.66933)"
 style="display:inline">
<g
 id="g4449"
 transform="matrix(1.7345143,0,0,1.7345143,-59.612009,-191.05341)">
<path
 inkscape:connector-curvature="0"
 id="path1243"
 style="fill:#143a79;fill-opacity:1;fill-rule:nonzero;stroke:none;stroke-width:1.33333325"
 d="m 71.107034,482.97252 h 37.217336 c 4.32,0 7.82133,3.50133 7.82133,7.82267 v 85.824 c 0,4.32 -3.50133,7.82266 -7.82133,7.82266 H 71.107034 c -4.32,0 -7.822667,-3.50266 -7.822667,-7.82266 v -85.824 c 0,-4.32134 3.502667,-7.82267 7.822667,-7.82267" />
<path
 inkscape:connector-curvature="0"
 id="path1245"
 style="fill:#ffffff;fill-opacity:1;fill-rule:nonzero;stroke:none;stroke-width:1.33333325"
 d="m 71.439034,502.05785 c 0,4.27334 3.825333,7.13067 8.641333,7.13067 4.814667,0 8.64,-2.85733 8.64,-7.13067 v -13.59733 h -3.688 v 13.25067 c 0,2.82933 -2.152,4.36 -4.952,4.36 -2.801333,0 -4.952,-1.53067 -4.952,-4.36 v -13.25067 h -3.689333 v 13.59733" />
<path
 inkscape:connector-curvature="0"
 id="path1247"
 style="fill:#ffffff;fill-opacity:1;fill-rule:nonzero;stroke:none;stroke-width:1.33333325"
 d="m 98.484367,509.01519 h 2.869333 l 8.02533,-20.55467 h -3.89333 l -5.532,15.64667 h -0.068 l -5.533333,-15.64667 h -3.893334 l 8.025334,20.55467" />
<path
 inkscape:connector-curvature="0"
 id="path1249"
 style="fill:#ffffff;fill-opacity:1;fill-rule:nonzero;stroke:none;stroke-width:1.33333325"
 d="m 71.964367,519.48319 h 1.165334 v -8.14134 h -1.165334 z" />
<path
 inkscape:connector-curvature="0"
 id="path1251"
 style="fill:#ffffff;fill-opacity:1;fill-rule:nonzero;stroke:none;stroke-width:1.33333325"
 d="m 76.4297,519.48319 h 1.165334 v -5.78534 h 0.02133 l 3.474667,5.78534 h 1.1 v -8.14134 H 81.0257 v 5.78534 h -0.02133 l -3.47467,-5.78534 h -1.1 v 8.14134" />
<path
 inkscape:connector-curvature="0"
 id="path1253"
 style="fill:#ffffff;fill-opacity:1;fill-rule:evenodd;stroke:none;stroke-width:1.33333325"
 d="M 85.495034,519.48319 H 88.1057 c 1.144,0 1.942667,-0.59467 2.396,-1.34934 0.345333,-0.572 0.432,-0.892 0.432,-2.72133 0,-1.704 -0.03333,-2.012 -0.410667,-2.69867 -0.496,-0.892 -1.328,-1.372 -2.341333,-1.372 h -2.686666 z m 1.165333,-6.97467 h 1.392 c 0.625333,0 1.013333,0.172 1.369333,0.68667 0.313333,0.44533 0.346667,0.8 0.346667,2.26266 0,1.50934 -0.03333,1.73867 -0.292,2.15067 -0.302667,0.468 -0.766667,0.708 -1.424,0.708 h -1.392 v -5.808" />
<path
 inkscape:connector-curvature="0"
 id="path1255"
 style="fill:#ffffff;fill-opacity:1;fill-rule:nonzero;stroke:none;stroke-width:1.33333325"
 d="m 93.9777,519.48319 h 4.909333 v -1.16667 h -3.744 v -2.38933 H 98.3377 v -1.09734 h -3.194667 v -2.32133 h 3.744 v -1.16667 H 93.9777 v 8.14134" />
<path
 inkscape:connector-curvature="0"
 id="path1257"
 style="fill:#ffffff;fill-opacity:1;fill-rule:nonzero;stroke:none;stroke-width:1.33333325"
 d="m 105.42703,519.48319 h 1.31734 l -2.352,-4.17334 2.2,-3.968 h -1.316 l -1.532,2.824 -1.532,-2.824 h -1.31734 l 2.20134,3.968 -2.352,4.17334 h 1.316 l 1.684,-3.02934 1.68266,3.02934" />
<path
 inkscape:connector-curvature="0"
 id="path1259"
 style="fill:#f28c00;fill-opacity:1;fill-rule:evenodd;stroke:none;stroke-width:1.33333325"
 d="m 74.131034,553.46719 c -1.597333,2.88933 -2.396,6.18 -2.396,9.55066 0,10.756 8.786666,17.41734 17.574666,17.41734 9.408,0 18.63867,-5.21734 18.63867,-18.3 0,-11.076 -7.1,-15.89067 -15.089337,-15.89067 -1.508,0 -3.461333,0.24 -4.791999,0.72133 H 87.888367 L 101.20303,522.80719 H 91.084367 Z m 15.710666,0 c 4.970667,0 9.053333,2.96933 9.053333,9.39066 0,6.82267 -4.881333,9.39067 -9.053333,9.39067 -5.502666,0 -9.053333,-2.96933 -9.053333,-9.39067 0,-6.42133 4.082667,-9.39066 9.053333,-9.39066" />
</g>
</g>
</svg>
